EESchema Schematic File Version 4
EELAYER 30 0
EELAYER END
$Descr USLetter 11000 8500
encoding utf-8
Sheet 1 1
Title "Heated Socks Battery"
Date "2021-02-27"
Rev "3"
Comp "Designer: Joel Brunetti"
Comment1 ""
Comment2 ""
Comment3 ""
Comment4 ""
$EndDescr
$Comp
L schematic:USB_C_Receptacle_Power J1
U 1 1 6020ABA3
P 1100 3800
F 0 "J1" H 750 4650 50  0000 C CNN
F 1 "USB4125-GF-A" H 1207 4576 50  0001 C CNN
F 2 "footprint:USB_C_Receptacle_GCT_USB4125" H 1250 3800 50  0001 C CNN
F 3 "https://gct.co/files/drawings/usb4125.pdf" H 1250 3800 50  0001 C CNN
F 4 "USB4125-GF-A" H 1000 4550 50  0000 C CNN "Part Number"
F 5 "0.93" H 1100 3800 50  0001 C CNN "Unit Cost ($)"
F 6 "https://www.digikey.ca/en/products/detail/gct/USB4125-GF-A/13547388" H 1100 3800 50  0001 C CNN "Vendor Link"
	1    1100 3800
	1    0    0    -1  
$EndComp
$Comp
L Connector_Generic:Conn_02x05_Odd_Even J3
U 1 1 60213FC9
P 1050 6850
F 0 "J3" H 1040 7230 50  0000 C CNN
F 1 "FTSH-105-04-F-D" H 1100 7176 50  0001 C CNN
F 2 "footprint:PressFit_PinHeader_2x05_P1.27mm_Vertical" H 1050 6850 50  0001 C CNN
F 3 "http://suddendocs.samtec.com/catalog_english/ftsh_th.pdf" H 1050 6850 50  0001 C CNN
F 4 "FTSH-105-04-F-D" H 1375 7150 50  0000 C CNN "Part Number"
F 5 "2.02" H 1050 6850 50  0001 C CNN "Unit Cost ($)"
F 6 "https://www.digikey.ca/en/products/detail/samtec-inc/FTSH-105-04-F-D/6678180" H 1050 6850 50  0001 C CNN "Vendor Link"
	1    1050 6850
	1    0    0    -1  
$EndComp
$Comp
L schematic:MCP73833 U1
U 1 1 6021A0CE
P 3200 3100
F 0 "U1" H 3250 3250 50  0000 C CNN
F 1 "MCP73833" H 3400 3150 50  0001 C CNN
F 2 "Package_SO:MSOP-10_3x3mm_P0.5mm" H 3100 3000 50  0001 C CNN
F 3 "https://ww1.microchip.com/downloads/en/DeviceDoc/22005b.pdf" H 3100 3000 50  0001 C CNN
F 4 "MCP73833-AMI/UN" H 3575 3150 50  0000 C CNN "Part Number"
F 5 "0.89" H 3200 3100 50  0001 C CNN "Unit Cost ($)"
F 6 "https://www.digikey.ca/en/products/detail/microchip-technology/MCP73833-AMI-UN/1223157" H 3200 3100 50  0001 C CNN "Vendor Link"
	1    3200 3100
	1    0    0    -1  
$EndComp
$Comp
L Regulator_Linear:MIC5504-3.3YM5 U2
U 1 1 6021C450
P 7000 3250
F 0 "U2" H 6750 3575 50  0000 C CNN
F 1 "MIC5504-3.3YM5" H 7025 3500 50  0001 C CNN
F 2 "Package_TO_SOT_SMD:SOT-23-5_HandSoldering" H 7000 2850 50  0001 C CNN
F 3 "https://ww1.microchip.com/downloads/en/DeviceDoc/MIC5501-02-03-04-300mA-Single-Output-LDO-in-Small-Packages-DS20006006B.pdf" H 6750 3500 50  0001 C CNN
F 4 "MIC5504-3.3YM5-TR" H 7100 3500 50  0000 C CNN "Part Number"
F 5 "0.12" H 7000 3250 50  0001 C CNN "Unit Cost ($)"
F 6 "https://www.digikey.ca/en/products/detail/microchip-technology/MIC5504-3-3YM5-TR/4864018" H 7000 3250 50  0001 C CNN "Vendor Link"
	1    7000 3250
	1    0    0    -1  
$EndComp
$Comp
L schematic:SIP32510 U4
U 1 1 6021E7C0
P 7650 1150
F 0 "U4" H 7640 1300 50  0000 L TNN
F 1 "SIP32510" H 7825 1200 50  0001 C CNN
F 2 "Package_TO_SOT_SMD:SOT-23-6_Handsoldering" H 7550 1150 50  0001 C CNN
F 3 "https://www.vishay.com/docs/63577/sip32510.pdf" H 7550 1150 50  0001 C CNN
F 4 "SIP32510DT-T1-GE3" H 8050 1200 50  0000 C CNN "Part Number"
F 5 "0.43" H 7650 1150 50  0001 C CNN "Unit Cost ($)"
F 6 "https://www.digikey.ca/en/products/detail/vishay-siliconix/SIP32510DT-T1-GE3/4496335" H 7650 1150 50  0001 C CNN "Vendor Link"
	1    7650 1150
	1    0    0    -1  
$EndComp
$Comp
L Switch:SW_Push SW1
U 1 1 6021FEBB
P 3600 5050
F 0 "SW1" V 3600 5550 50  0000 C CNN
F 1 "KSEK43GLFS" V 3400 5400 50  0001 C CNN
F 2 "footprint:KSEK43G" H 3600 5250 50  0001 C CNN
F 3 "https://www.ckswitches.com/media/1458/kse.pdf" H 3600 5250 50  0001 C CNN
F 4 "KSEK43GLFS" V 3500 5380 50  0000 C CNN "Part Number"
F 5 "0.32" H 3600 5050 50  0001 C CNN "Unit Cost ($)"
F 6 "https://www.digikey.ca/en/products/detail/c-k/KSEK43GLFS/3861159" H 3600 5050 50  0001 C CNN "Vendor Link"
	1    3600 5050
	0    -1   -1   0   
$EndComp
$Comp
L Device:LED D1
U 1 1 60220A5A
P 3550 6900
F 0 "D1" V 3589 6782 50  0000 R CNN
F 1 "Green" V 3498 6782 50  0000 R CNN
F 2 "LED_SMD:LED_0603_1608Metric_Pad1.05x0.95mm_HandSolder" H 3550 6900 50  0001 C CNN
F 3 "" H 3550 6900 50  0001 C CNN
F 4 "https://www.digikey.ca/en/products/detail/osram-opto-semiconductors-inc/LG-L29K-G2J1-24-Z/1938740" H 3550 6900 50  0001 C CNN "Vendor Link"
F 5 "LG L29K-G2J1-24-Z" H 3550 6900 50  0001 C CNN "Part Number"
F 6 "0.50" H 3550 6900 50  0001 C CNN "Unit Cost ($)"
	1    3550 6900
	0    -1   -1   0   
$EndComp
$Comp
L Device:LED D2
U 1 1 602217CE
P 4050 6900
F 0 "D2" V 4089 6782 50  0000 R CNN
F 1 "Yellow" V 3998 6782 50  0000 R CNN
F 2 "LED_SMD:LED_0603_1608Metric_Pad1.05x0.95mm_HandSolder" H 4050 6900 50  0001 C CNN
F 3 "" H 4050 6900 50  0001 C CNN
F 4 "https://www.digikey.ca/en/products/detail/osram-opto-semiconductors-inc/LY-L29K-H1K2-26-Z/810340" H 4050 6900 50  0001 C CNN "Vendor Link"
F 5 "LY L29K-H1K2-26-Z" H 4050 6900 50  0001 C CNN "Part Number"
F 6 "0.38" H 4050 6900 50  0001 C CNN "Unit Cost ($)"
	1    4050 6900
	0    -1   -1   0   
$EndComp
$Comp
L Connector_Generic:Conn_01x02 J2
U 1 1 60222211
P 9950 1250
F 0 "J2" H 9900 1425 50  0000 L CNN
F 1 "Custom_Snaps" H 9900 1350 50  0000 L CNN
F 2 "footprint:Custom_Snaps_1x2" H 9950 1250 50  0001 C CNN
F 3 "" H 9950 1250 50  0001 C CNN
F 4 "Custom_Snaps" H 9950 1250 50  0001 C CNN "Part Number"
F 5 "0.18" H 9950 1250 50  0001 C CNN "Unit Cost ($)"
F 6 "https://www.etsy.com/ca/listing/731998028/multi-size-silver-color-metal-snap?ref=cart&variation0=1454529110&variation1=1454529108" H 9950 1250 50  0001 C CNN "Vendor Link"
	1    9950 1250
	1    0    0    -1  
$EndComp
Wire Wire Line
	3100 3300 3000 3300
Wire Wire Line
	3000 3300 3000 3200
Wire Wire Line
	3000 3200 3100 3200
$Comp
L power:GND #PWR0102
U 1 1 60240AD4
P 1100 4850
F 0 "#PWR0102" H 1100 4600 50  0001 C CNN
F 1 "GND" H 1105 4677 50  0000 C CNN
F 2 "" H 1100 4850 50  0001 C CNN
F 3 "" H 1100 4850 50  0001 C CNN
	1    1100 4850
	1    0    0    -1  
$EndComp
Wire Wire Line
	1100 4850 1100 4800
Wire Wire Line
	800  4700 800  4800
Wire Wire Line
	800  4800 1100 4800
Connection ~ 1100 4800
Wire Wire Line
	1100 4800 1100 4700
$Comp
L Device:C C1
U 1 1 602442EB
P 2150 3450
F 0 "C1" H 2265 3496 50  0000 L CNN
F 1 "10u" H 2265 3405 50  0000 L CNN
F 2 "Capacitor_SMD:C_0603_1608Metric_Pad1.08x0.95mm_HandSolder" H 2188 3300 50  0001 C CNN
F 3 "" H 2150 3450 50  0001 C CNN
F 4 "CL10A106MQ8NNNC" H 2150 3450 50  0001 C CNN "Part Number"
F 5 "0.11" H 2150 3450 50  0001 C CNN "Unit Cost ($)"
F 6 "0 - 6.3 V" H 2150 3450 50  0001 C CNN "Input Voltage"
	1    2150 3450
	1    0    0    -1  
$EndComp
$Comp
L power:GND #PWR0104
U 1 1 602458A0
P 4800 4050
F 0 "#PWR0104" H 4800 3800 50  0001 C CNN
F 1 "GND" H 4805 3877 50  0000 C CNN
F 2 "" H 4800 4050 50  0001 C CNN
F 3 "" H 4800 4050 50  0001 C CNN
	1    4800 4050
	1    0    0    -1  
$EndComp
$Comp
L power:GND #PWR0105
U 1 1 60246387
P 2150 3800
F 0 "#PWR0105" H 2150 3550 50  0001 C CNN
F 1 "GND" H 2155 3627 50  0000 C CNN
F 2 "" H 2150 3800 50  0001 C CNN
F 3 "" H 2150 3800 50  0001 C CNN
	1    2150 3800
	1    0    0    -1  
$EndComp
$Comp
L power:+BATT #PWR0106
U 1 1 60246B0E
P 4800 3100
F 0 "#PWR0106" H 4800 2950 50  0001 C CNN
F 1 "+BATT" H 4815 3273 50  0000 C CNN
F 2 "" H 4800 3100 50  0001 C CNN
F 3 "" H 4800 3100 50  0001 C CNN
	1    4800 3100
	1    0    0    -1  
$EndComp
$Comp
L Device:C C4
U 1 1 602477EB
P 4800 3450
F 0 "C4" H 4915 3496 50  0000 L CNN
F 1 "10u" H 4915 3405 50  0000 L CNN
F 2 "Capacitor_SMD:C_0603_1608Metric_Pad1.08x0.95mm_HandSolder" H 4838 3300 50  0001 C CNN
F 3 "" H 4800 3450 50  0001 C CNN
F 4 "CL10A106MQ8NNNC" H 4800 3450 50  0001 C CNN "Part Number"
F 5 "0.11" H 4800 3450 50  0001 C CNN "Unit Cost ($)"
F 6 "0 - 6.3 V" H 4800 3450 50  0001 C CNN "Input Voltage"
	1    4800 3450
	1    0    0    -1  
$EndComp
Wire Wire Line
	2150 3600 2150 3800
Wire Wire Line
	3950 3200 4050 3200
Wire Wire Line
	4800 3200 4800 3100
Wire Wire Line
	3950 3300 4050 3300
Wire Wire Line
	4050 3300 4050 3200
Connection ~ 4050 3200
Wire Wire Line
	4800 3200 4800 3300
Connection ~ 4800 3200
Wire Wire Line
	4800 3600 4800 3800
Connection ~ 4800 3800
Wire Wire Line
	4800 3800 4800 4050
Wire Wire Line
	3950 3800 4550 3800
Text Label 2650 3500 0    50   ~ 0
BATT_STAT1
Text Label 2650 3600 0    50   ~ 0
BATT_STAT2
Text Label 2650 3700 0    50   ~ 0
BATT_~PG
Wire Wire Line
	2150 3300 2150 3200
Connection ~ 2150 3200
Wire Wire Line
	2550 3500 3100 3500
Wire Wire Line
	2550 3600 3100 3600
Wire Wire Line
	2550 3700 3100 3700
$Comp
L Device:R R6
U 1 1 6024EF1E
P 4250 3500
F 0 "R6" V 4150 3450 50  0000 C CNN
F 1 "10K" V 4150 3650 50  0000 C CNN
F 2 "Resistor_SMD:R_0603_1608Metric_Pad0.98x0.95mm_HandSolder" V 4180 3500 50  0001 C CNN
F 3 "" H 4250 3500 50  0001 C CNN
F 4 "RMCF0603FT10K0" H 4250 3500 50  0001 C CNN "Part Number"
F 5 "0.1" H 4250 3500 50  0001 C CNN "Unit Cost ($)"
F 6 "0.1 W" H 4250 3500 50  0001 C CNN "Power Rating"
F 7 "1 %" H 4250 3500 50  0001 C CNN "Tolerance"
	1    4250 3500
	0    1    1    0   
$EndComp
$Comp
L Device:R R7
U 1 1 6024FC1E
P 4250 3600
F 0 "R7" V 4350 3550 50  0000 C CNN
F 1 "1K" V 4350 3725 50  0000 C CNN
F 2 "Resistor_SMD:R_0603_1608Metric_Pad0.98x0.95mm_HandSolder" V 4180 3600 50  0001 C CNN
F 3 "" H 4250 3600 50  0001 C CNN
F 4 "RMCF0603FT1K00" H 4250 3600 50  0001 C CNN "Part Number"
F 5 "0.1" H 4250 3600 50  0001 C CNN "Unit Cost ($)"
F 6 "0.1 W" H 4250 3600 50  0001 C CNN "Power Rating"
F 7 "1 %" H 4250 3600 50  0001 C CNN "Tolerance"
	1    4250 3600
	0    1    1    0   
$EndComp
Wire Wire Line
	3950 3500 4100 3500
Wire Wire Line
	3950 3600 4100 3600
Wire Wire Line
	4400 3500 4550 3500
Wire Wire Line
	4550 3500 4550 3600
Connection ~ 4550 3800
Wire Wire Line
	4550 3800 4800 3800
Wire Wire Line
	4400 3600 4550 3600
Connection ~ 4550 3600
Wire Wire Line
	4550 3600 4550 3800
Text Notes 2900 4150 0    50   ~ 0
Charge Current = 1000 mA\nWorst Case Thermal Power Dissipation = 2.3 W\nSee documentation/calculation.ods | Charge
$Comp
L power:GND #PWR0107
U 1 1 60253EF4
P 6500 2050
F 0 "#PWR0107" H 6500 1800 50  0001 C CNN
F 1 "GND" H 6505 1877 50  0000 C CNN
F 2 "" H 6500 2050 50  0001 C CNN
F 3 "" H 6500 2050 50  0001 C CNN
	1    6500 2050
	1    0    0    -1  
$EndComp
$Comp
L Device:C C6
U 1 1 602541E2
P 6500 1600
F 0 "C6" H 6615 1646 50  0000 L CNN
F 1 "10u" H 6615 1555 50  0000 L CNN
F 2 "Capacitor_SMD:C_0603_1608Metric_Pad1.08x0.95mm_HandSolder" H 6538 1450 50  0001 C CNN
F 3 "" H 6500 1600 50  0001 C CNN
F 4 "CL10A106MQ8NNNC" H 6500 1600 50  0001 C CNN "Part Number"
F 5 "0.11" H 6500 1600 50  0001 C CNN "Unit Cost ($)"
F 6 "0 - 6.3 V" H 6500 1600 50  0001 C CNN "Input Voltage"
	1    6500 1600
	1    0    0    -1  
$EndComp
$Comp
L Device:C C7
U 1 1 602549CC
P 8900 1600
F 0 "C7" H 9015 1646 50  0000 L CNN
F 1 "10u" H 9015 1555 50  0000 L CNN
F 2 "Capacitor_SMD:C_0603_1608Metric_Pad1.08x0.95mm_HandSolder" H 8938 1450 50  0001 C CNN
F 3 "" H 8900 1600 50  0001 C CNN
F 4 "CL10A106MQ8NNNC" H 8900 1600 50  0001 C CNN "Part Number"
F 5 "0.11" H 8900 1600 50  0001 C CNN "Unit Cost ($)"
F 6 "0 - 6.3 V" H 8900 1600 50  0001 C CNN "Input Voltage"
	1    8900 1600
	1    0    0    -1  
$EndComp
Wire Wire Line
	7550 1350 7400 1350
Wire Wire Line
	7400 1350 7400 1250
Connection ~ 7400 1250
Wire Wire Line
	7400 1250 7550 1250
Wire Wire Line
	9750 1250 8900 1250
$Comp
L power:GND #PWR0108
U 1 1 60256D27
P 9600 1900
F 0 "#PWR0108" H 9600 1650 50  0001 C CNN
F 1 "GND" H 9605 1727 50  0000 C CNN
F 2 "" H 9600 1900 50  0001 C CNN
F 3 "" H 9600 1900 50  0001 C CNN
	1    9600 1900
	1    0    0    -1  
$EndComp
Wire Wire Line
	9600 1900 9600 1350
Wire Wire Line
	9600 1350 9750 1350
Wire Wire Line
	8900 1750 8900 1850
Wire Wire Line
	8250 1350 8400 1350
Wire Wire Line
	8400 1350 8400 1250
Connection ~ 8400 1250
Wire Wire Line
	8400 1250 8250 1250
Wire Wire Line
	8900 1450 8900 1250
Connection ~ 8900 1250
Text Label 7050 1550 0    50   ~ 0
OUT_EN
$Comp
L Device:R R11
U 1 1 6025D26F
P 7400 1850
F 0 "R11" H 7300 1800 50  0000 C CNN
F 1 "100K" H 7250 1900 50  0000 C CNN
F 2 "Resistor_SMD:R_0603_1608Metric_Pad0.98x0.95mm_HandSolder" V 7330 1850 50  0001 C CNN
F 3 "" H 7400 1850 50  0001 C CNN
F 4 "RMCF0603FT100K" H 7400 1850 50  0001 C CNN "Part Number"
F 5 "0.1" H 7400 1850 50  0001 C CNN "Unit Cost ($)"
F 6 "0.1 W" H 7400 1850 50  0001 C CNN "Power Rating"
F 7 "1 %" H 7400 1850 50  0001 C CNN "Tolerance"
	1    7400 1850
	-1   0    0    1   
$EndComp
Wire Wire Line
	7900 1750 7900 1850
Wire Wire Line
	8900 1850 7900 1850
Connection ~ 7900 1850
Wire Wire Line
	7900 1850 7900 2050
Wire Wire Line
	7400 1700 7400 1550
Connection ~ 7400 1550
Wire Wire Line
	7400 1550 7550 1550
Wire Wire Line
	7000 1550 7400 1550
Wire Wire Line
	6500 1450 6500 1250
Wire Wire Line
	6500 1750 6500 2050
Wire Wire Line
	6500 2050 7400 2050
Wire Wire Line
	7400 2050 7400 2000
Connection ~ 7400 2050
Wire Wire Line
	7400 2050 7900 2050
Wire Wire Line
	8400 1250 8900 1250
$Comp
L Device:C C2
U 1 1 6026CC54
P 6050 3350
F 0 "C2" H 6165 3396 50  0000 L CNN
F 1 "1u" H 6165 3305 50  0000 L CNN
F 2 "Capacitor_SMD:C_0603_1608Metric_Pad1.08x0.95mm_HandSolder" H 6088 3200 50  0001 C CNN
F 3 "" H 6050 3350 50  0001 C CNN
F 4 "CL10B105KQ8NNNC" H 6050 3350 50  0001 C CNN "Part Number"
F 5 "0.1" H 6050 3350 50  0001 C CNN "Unit Cost ($)"
F 6 "0 - 6.3 V" H 6050 3350 50  0001 C CNN "Input Voltage"
	1    6050 3350
	1    0    0    -1  
$EndComp
$Comp
L Device:C C3
U 1 1 6026D386
P 7850 3350
F 0 "C3" H 7965 3396 50  0000 L CNN
F 1 "1u" H 7965 3305 50  0000 L CNN
F 2 "Capacitor_SMD:C_0603_1608Metric_Pad1.08x0.95mm_HandSolder" H 7888 3200 50  0001 C CNN
F 3 "" H 7850 3350 50  0001 C CNN
F 4 "CL10B105KQ8NNNC" H 7850 3350 50  0001 C CNN "Part Number"
F 5 "0.1" H 7850 3350 50  0001 C CNN "Unit Cost ($)"
F 6 "0 - 6.3 V" H 7850 3350 50  0001 C CNN "Input Voltage"
	1    7850 3350
	1    0    0    -1  
$EndComp
$Comp
L power:GND #PWR0109
U 1 1 6026EE37
P 5850 3800
F 0 "#PWR0109" H 5850 3550 50  0001 C CNN
F 1 "GND" H 5855 3627 50  0000 C CNN
F 2 "" H 5850 3800 50  0001 C CNN
F 3 "" H 5850 3800 50  0001 C CNN
	1    5850 3800
	1    0    0    -1  
$EndComp
$Comp
L power:+BATT #PWR0110
U 1 1 6026F34A
P 5850 3150
F 0 "#PWR0110" H 5850 3000 50  0001 C CNN
F 1 "+BATT" H 5865 3323 50  0000 C CNN
F 2 "" H 5850 3150 50  0001 C CNN
F 3 "" H 5850 3150 50  0001 C CNN
	1    5850 3150
	1    0    0    -1  
$EndComp
$Comp
L power:+3.3V #PWR0111
U 1 1 60270179
P 8150 3150
F 0 "#PWR0111" H 8150 3000 50  0001 C CNN
F 1 "+3.3V" H 8165 3323 50  0000 C CNN
F 2 "" H 8150 3150 50  0001 C CNN
F 3 "" H 8150 3150 50  0001 C CNN
	1    8150 3150
	1    0    0    -1  
$EndComp
Wire Wire Line
	5850 3150 6050 3150
Wire Wire Line
	7400 3150 7850 3150
Wire Wire Line
	7850 3200 7850 3150
Connection ~ 7850 3150
Wire Wire Line
	7850 3150 8150 3150
Wire Wire Line
	6050 3200 6050 3150
Connection ~ 6050 3150
Wire Wire Line
	6050 3150 6500 3150
Wire Wire Line
	6600 3350 6500 3350
Wire Wire Line
	6500 3350 6500 3150
Connection ~ 6500 3150
Wire Wire Line
	6500 3150 6600 3150
Text Label 7900 5750 0    50   ~ 0
OUT_EN
$Comp
L power:GND #PWR0112
U 1 1 6027CDD4
P 5850 6500
F 0 "#PWR0112" H 5850 6250 50  0001 C CNN
F 1 "GND" H 5855 6327 50  0000 C CNN
F 2 "" H 5850 6500 50  0001 C CNN
F 3 "" H 5850 6500 50  0001 C CNN
	1    5850 6500
	1    0    0    -1  
$EndComp
$Comp
L Device:R R14
U 1 1 6027D134
P 9700 5200
F 0 "R14" H 9600 5150 50  0000 C CNN
F 1 "100K" H 9550 5250 50  0000 C CNN
F 2 "Resistor_SMD:R_0603_1608Metric_Pad0.98x0.95mm_HandSolder" V 9630 5200 50  0001 C CNN
F 3 "" H 9700 5200 50  0001 C CNN
F 4 "RMCF0603FT100K" H 9700 5200 50  0001 C CNN "Part Number"
F 5 "0.1" H 9700 5200 50  0001 C CNN "Unit Cost ($)"
F 6 "0.1 W" H 9700 5200 50  0001 C CNN "Power Rating"
F 7 "1 %" H 9700 5200 50  0001 C CNN "Tolerance"
	1    9700 5200
	-1   0    0    1   
$EndComp
$Comp
L Device:R R15
U 1 1 6027E145
P 10000 5200
F 0 "R15" H 9900 5150 50  0000 C CNN
F 1 "100K" H 9850 5250 50  0000 C CNN
F 2 "Resistor_SMD:R_0603_1608Metric_Pad0.98x0.95mm_HandSolder" V 9930 5200 50  0001 C CNN
F 3 "" H 10000 5200 50  0001 C CNN
F 4 "RMCF0603FT100K" H 10000 5200 50  0001 C CNN "Part Number"
F 5 "0.1" H 10000 5200 50  0001 C CNN "Unit Cost ($)"
F 6 "0.1 W" H 10000 5200 50  0001 C CNN "Power Rating"
F 7 "1 %" H 10000 5200 50  0001 C CNN "Tolerance"
	1    10000 5200
	-1   0    0    1   
$EndComp
$Comp
L Device:R R16
U 1 1 6027E62E
P 10300 5200
F 0 "R16" H 10200 5150 50  0000 C CNN
F 1 "100K" H 10150 5250 50  0000 C CNN
F 2 "Resistor_SMD:R_0603_1608Metric_Pad0.98x0.95mm_HandSolder" V 10230 5200 50  0001 C CNN
F 3 "" H 10300 5200 50  0001 C CNN
F 4 "RMCF0603FT100K" H 10300 5200 50  0001 C CNN "Part Number"
F 5 "0.1" H 10300 5200 50  0001 C CNN "Unit Cost ($)"
F 6 "0.1 W" H 10300 5200 50  0001 C CNN "Power Rating"
F 7 "1 %" H 10300 5200 50  0001 C CNN "Tolerance"
	1    10300 5200
	-1   0    0    1   
$EndComp
Text Label 1850 6650 0    50   ~ 0
SWDIO
Text Label 1850 6750 0    50   ~ 0
SWCLK
$Comp
L power:+3.3V #PWR0113
U 1 1 60223614
P 750 6550
F 0 "#PWR0113" H 750 6400 50  0001 C CNN
F 1 "+3.3V" H 765 6723 50  0000 C CNN
F 2 "" H 750 6550 50  0001 C CNN
F 3 "" H 750 6550 50  0001 C CNN
	1    750  6550
	1    0    0    -1  
$EndComp
$Comp
L power:GND #PWR0114
U 1 1 602238AC
P 750 7150
F 0 "#PWR0114" H 750 6900 50  0001 C CNN
F 1 "GND" H 755 6977 50  0000 C CNN
F 2 "" H 750 7150 50  0001 C CNN
F 3 "" H 750 7150 50  0001 C CNN
	1    750  7150
	1    0    0    -1  
$EndComp
Wire Wire Line
	850  6750 750  6750
Wire Wire Line
	750  6750 750  6850
Wire Wire Line
	850  6850 750  6850
Connection ~ 750  6850
Wire Wire Line
	750  6850 750  7050
Wire Wire Line
	850  7050 750  7050
Connection ~ 750  7050
Wire Wire Line
	750  7050 750  7150
Wire Wire Line
	750  6550 750  6650
Wire Wire Line
	750  6650 850  6650
Wire Wire Line
	1350 6650 2150 6650
Wire Wire Line
	2150 6750 1350 6750
NoConn ~ 850  6950
NoConn ~ 1350 6850
NoConn ~ 1350 6950
NoConn ~ 1350 7050
Text Label 7900 5950 0    50   ~ 0
SWDIO
Text Label 7900 6050 0    50   ~ 0
SWCLK
$Comp
L power:GND #PWR0115
U 1 1 6023D83A
P 3600 5550
F 0 "#PWR0115" H 3600 5300 50  0001 C CNN
F 1 "GND" H 3605 5377 50  0000 C CNN
F 2 "" H 3600 5550 50  0001 C CNN
F 3 "" H 3600 5550 50  0001 C CNN
	1    3600 5550
	1    0    0    -1  
$EndComp
$Comp
L power:+3.3V #PWR0116
U 1 1 6023DAD3
P 3600 4850
F 0 "#PWR0116" H 3600 4700 50  0001 C CNN
F 1 "+3.3V" H 3615 5023 50  0000 C CNN
F 2 "" H 3600 4850 50  0001 C CNN
F 3 "" H 3600 4850 50  0001 C CNN
	1    3600 4850
	1    0    0    -1  
$EndComp
$Comp
L Device:R R1
U 1 1 6023DE3F
P 3600 5400
F 0 "R1" H 3500 5350 50  0000 C CNN
F 1 "10K" H 3475 5450 50  0000 C CNN
F 2 "Resistor_SMD:R_0603_1608Metric_Pad0.98x0.95mm_HandSolder" V 3530 5400 50  0001 C CNN
F 3 "" H 3600 5400 50  0001 C CNN
F 4 "RMCF0603FT10K0" H 3600 5400 50  0001 C CNN "Part Number"
F 5 "0.1" H 3600 5400 50  0001 C CNN "Unit Cost ($)"
F 6 "0.1 W" H 3600 5400 50  0001 C CNN "Power Rating"
F 7 "1 %" H 3600 5400 50  0001 C CNN "Tolerance"
	1    3600 5400
	-1   0    0    1   
$EndComp
Text Label 4000 5250 0    50   ~ 0
MODE_BUTTON
Text Label 7900 5850 0    50   ~ 0
MODE_BUTTON
Wire Wire Line
	7700 5950 8500 5950
Wire Wire Line
	7700 6050 8500 6050
Text Label 7900 4950 0    50   ~ 0
BATT_DIV
$Comp
L MCU_ST_STM32L0:STM32L011F3Px U3
U 1 1 60262BA4
P 7300 5450
F 0 "U3" H 6950 6400 50  0000 C CNN
F 1 "STM32L011F3Px" H 7150 6350 50  0001 C CNN
F 2 "Package_SO:TSSOP-20_4.4x6.5mm_P0.65mm" H 6900 4750 50  0001 R CNN
F 3 "https://www.st.com/resource/en/datasheet/stm32l011f3.pdf" H 7300 5450 50  0001 C CNN
F 4 "https://www.digikey.ca/en/products/detail/stmicroelectronics/STM32L011F3P6/6166957" H 7300 5450 50  0001 C CNN "Vendor Link"
F 5 "STM32L011F3P6" H 7200 6300 50  0000 C CNN "Part Number"
F 6 "1.94" H 7300 5450 50  0001 C CNN "Unit Cost ($)"
	1    7300 5450
	1    0    0    -1  
$EndComp
Wire Wire Line
	7700 5750 8500 5750
Text Label 7900 5650 0    50   ~ 0
BATT_STAT1
Text Label 7900 5550 0    50   ~ 0
BATT_STAT2
Text Label 7900 5450 0    50   ~ 0
BATT_~PG
$Comp
L power:+3.3V #PWR0117
U 1 1 6027493D
P 10000 4800
F 0 "#PWR0117" H 10000 4650 50  0001 C CNN
F 1 "+3.3V" H 10015 4973 50  0000 C CNN
F 2 "" H 10000 4800 50  0001 C CNN
F 3 "" H 10000 4800 50  0001 C CNN
	1    10000 4800
	1    0    0    -1  
$EndComp
Wire Wire Line
	10000 5050 10000 4950
Wire Wire Line
	9700 5050 9700 4950
Wire Wire Line
	9700 4950 10000 4950
Connection ~ 10000 4950
Wire Wire Line
	10000 4950 10000 4850
Wire Wire Line
	10300 5050 10300 4850
Wire Wire Line
	10300 4850 10000 4850
Connection ~ 10000 4850
Wire Wire Line
	10000 4850 10000 4800
Wire Wire Line
	9700 5450 9700 5350
Wire Wire Line
	10000 5550 10000 5350
Wire Wire Line
	10300 5650 10300 5350
Wire Wire Line
	7700 5850 8500 5850
$Comp
L Device:R R2
U 1 1 602939B7
P 3550 7350
F 0 "R2" H 3450 7300 50  0000 C CNN
F 1 "330" H 3375 7400 50  0000 C CNN
F 2 "Resistor_SMD:R_0603_1608Metric_Pad0.98x0.95mm_HandSolder" V 3480 7350 50  0001 C CNN
F 3 "" H 3550 7350 50  0001 C CNN
F 4 "RMCF0603FT330R" H 3550 7350 50  0001 C CNN "Part Number"
F 5 "0.1" H 3550 7350 50  0001 C CNN "Unit Cost ($)"
F 6 "0.1 W" H 3550 7350 50  0001 C CNN "Power Rating"
F 7 "1 %" H 3550 7350 50  0001 C CNN "Tolerance"
	1    3550 7350
	-1   0    0    1   
$EndComp
$Comp
L power:GND #PWR0118
U 1 1 60294630
P 4300 7600
F 0 "#PWR0118" H 4300 7350 50  0001 C CNN
F 1 "GND" H 4305 7427 50  0000 C CNN
F 2 "" H 4300 7600 50  0001 C CNN
F 3 "" H 4300 7600 50  0001 C CNN
	1    4300 7600
	1    0    0    -1  
$EndComp
Wire Wire Line
	3550 7500 3550 7600
Wire Wire Line
	3550 7600 4050 7600
Wire Wire Line
	5050 7600 5050 7500
Connection ~ 4300 7600
Wire Wire Line
	4300 7600 4550 7600
Wire Wire Line
	4550 7500 4550 7600
Connection ~ 4550 7600
Wire Wire Line
	4550 7600 5050 7600
Wire Wire Line
	4050 7500 4050 7600
Connection ~ 4050 7600
Wire Wire Line
	4050 7600 4300 7600
Wire Wire Line
	3550 7050 3550 7200
Wire Wire Line
	4050 7050 4050 7200
Wire Wire Line
	4550 7050 4550 7200
Wire Wire Line
	5050 7050 5050 7200
Wire Wire Line
	3550 6750 3550 6650
Wire Wire Line
	3550 6650 3050 6650
Wire Wire Line
	4050 6750 4050 6550
Wire Wire Line
	4050 6550 3050 6550
Wire Wire Line
	4550 6750 4550 6450
Wire Wire Line
	4550 6450 3050 6450
Wire Wire Line
	5050 6750 5050 6350
Wire Wire Line
	5050 6350 3050 6350
Text Label 3150 6350 0    50   ~ 0
LED_RED
Text Label 3150 6450 0    50   ~ 0
LED_ORANGE
Text Label 3150 6550 0    50   ~ 0
LED_YELLOW
Text Label 3150 6650 0    50   ~ 0
LED_GREEN
Text Label 7900 5050 0    50   ~ 0
LED_RED
Text Label 7900 5150 0    50   ~ 0
LED_ORANGE
Text Label 7900 5250 0    50   ~ 0
LED_YELLOW
Text Label 7900 5350 0    50   ~ 0
LED_GREEN
Wire Wire Line
	7700 5350 8500 5350
Wire Wire Line
	8500 5250 7700 5250
Wire Wire Line
	8500 5150 7700 5150
Wire Wire Line
	8500 5050 7700 5050
$Comp
L Device:R R13
U 1 1 602DC399
P 9000 5100
F 0 "R13" V 8900 5050 50  0000 C CNN
F 1 "100K" V 9100 5100 50  0000 C CNN
F 2 "Resistor_SMD:R_0603_1608Metric_Pad0.98x0.95mm_HandSolder" V 8930 5100 50  0001 C CNN
F 3 "" H 9000 5100 50  0001 C CNN
F 4 "RMCF0603FT100K" H 9000 5100 50  0001 C CNN "Part Number"
F 5 "0.1" H 9000 5100 50  0001 C CNN "Unit Cost ($)"
F 6 "0.1 W" H 9000 5100 50  0001 C CNN "Power Rating"
F 7 "1 %" H 9000 5100 50  0001 C CNN "Tolerance"
	1    9000 5100
	0    1    1    0   
$EndComp
$Comp
L Device:R R12
U 1 1 602DCF32
P 9000 4800
F 0 "R12" V 8900 4750 50  0000 C CNN
F 1 "100K" V 9100 4800 50  0000 C CNN
F 2 "Resistor_SMD:R_0603_1608Metric_Pad0.98x0.95mm_HandSolder" V 8930 4800 50  0001 C CNN
F 3 "" H 9000 4800 50  0001 C CNN
F 4 "RMCF0603FT100K" H 9000 4800 50  0001 C CNN "Part Number"
F 5 "0.1" H 9000 4800 50  0001 C CNN "Unit Cost ($)"
F 6 "0.1 W" H 9000 4800 50  0001 C CNN "Power Rating"
F 7 "1 %" H 9000 4800 50  0001 C CNN "Tolerance"
	1    9000 4800
	0    1    1    0   
$EndComp
$Comp
L power:GND #PWR0119
U 1 1 602E2D85
P 9250 5150
F 0 "#PWR0119" H 9250 4900 50  0001 C CNN
F 1 "GND" H 9255 4977 50  0000 C CNN
F 2 "" H 9250 5150 50  0001 C CNN
F 3 "" H 9250 5150 50  0001 C CNN
	1    9250 5150
	1    0    0    -1  
$EndComp
Wire Wire Line
	7700 5450 9700 5450
Wire Wire Line
	7700 5550 10000 5550
Wire Wire Line
	7700 5650 10300 5650
Wire Wire Line
	8850 4800 8850 4950
Wire Wire Line
	9250 4700 9250 4800
Wire Wire Line
	9250 4800 9150 4800
Wire Wire Line
	9150 5100 9250 5100
Wire Wire Line
	7700 4950 8550 4950
Connection ~ 8850 4950
Wire Wire Line
	8850 4950 8850 5100
Text Notes 8800 4450 0    50   ~ 0
BATT_DIV = 0.5 x +BATT\nSee documentation/calculation.ods | ADC
$Comp
L power:+BATT #PWR0120
U 1 1 6030C347
P 9250 4700
F 0 "#PWR0120" H 9250 4550 50  0001 C CNN
F 1 "+BATT" H 9265 4873 50  0000 C CNN
F 2 "" H 9250 4700 50  0001 C CNN
F 3 "" H 9250 4700 50  0001 C CNN
	1    9250 4700
	1    0    0    -1  
$EndComp
$Comp
L Device:R R8
U 1 1 6031D9C3
P 6350 5600
F 0 "R8" H 6250 5550 50  0000 C CNN
F 1 "DNP" H 6225 5650 50  0000 C CNN
F 2 "Resistor_SMD:R_0603_1608Metric_Pad0.98x0.95mm_HandSolder" V 6280 5600 50  0001 C CNN
F 3 "" H 6350 5600 50  0001 C CNN
	1    6350 5600
	-1   0    0    1   
$EndComp
$Comp
L Device:R R9
U 1 1 6031E1EF
P 6350 6050
F 0 "R9" H 6250 6000 50  0000 C CNN
F 1 "0" H 6275 6100 50  0000 C CNN
F 2 "Resistor_SMD:R_0603_1608Metric_Pad0.98x0.95mm_HandSolder" V 6280 6050 50  0001 C CNN
F 3 "" H 6350 6050 50  0001 C CNN
F 4 "CRCW06030000Z0EA" H 6350 6050 50  0001 C CNN "Part Number"
F 5 "0.1" H 6350 6050 50  0001 C CNN "Unit Cost ($)"
F 6 "0.1 W" H 6350 6050 50  0001 C CNN "Power Rating"
F 7 "Jumper" H 6350 6050 50  0001 C CNN "Tolerance"
	1    6350 6050
	-1   0    0    1   
$EndComp
$Comp
L Device:R R10
U 1 1 60349FB6
P 6400 4950
F 0 "R10" V 6300 4900 50  0000 C CNN
F 1 "100K" V 6500 4950 50  0000 C CNN
F 2 "Resistor_SMD:R_0603_1608Metric_Pad0.98x0.95mm_HandSolder" V 6330 4950 50  0001 C CNN
F 3 "" H 6400 4950 50  0001 C CNN
F 4 "RMCF0603FT100K" H 6400 4950 50  0001 C CNN "Part Number"
F 5 "0.1" H 6400 4950 50  0001 C CNN "Unit Cost ($)"
F 6 "0.1 W" H 6400 4950 50  0001 C CNN "Power Rating"
F 7 "1 %" H 6400 4950 50  0001 C CNN "Tolerance"
	1    6400 4950
	0    1    1    0   
$EndComp
Wire Wire Line
	6550 4950 6800 4950
$Comp
L power:+3.3V #PWR0121
U 1 1 60356CD7
P 5850 4650
F 0 "#PWR0121" H 5850 4500 50  0001 C CNN
F 1 "+3.3V" H 5865 4823 50  0000 C CNN
F 2 "" H 5850 4650 50  0001 C CNN
F 3 "" H 5850 4650 50  0001 C CNN
	1    5850 4650
	1    0    0    -1  
$EndComp
Wire Wire Line
	7200 6400 7200 6250
$Comp
L Device:C C5
U 1 1 60370225
P 5850 5450
F 0 "C5" H 5965 5496 50  0000 L CNN
F 1 "1u" H 5965 5405 50  0000 L CNN
F 2 "Capacitor_SMD:C_0603_1608Metric_Pad1.08x0.95mm_HandSolder" H 5888 5300 50  0001 C CNN
F 3 "" H 5850 5450 50  0001 C CNN
F 4 "CL10B105KQ8NNNC" H 5850 5450 50  0001 C CNN "Part Number"
F 5 "0.1" H 5850 5450 50  0001 C CNN "Unit Cost ($)"
F 6 "0 - 6.3 V" H 5850 5450 50  0001 C CNN "Input Voltage"
	1    5850 5450
	1    0    0    -1  
$EndComp
Wire Wire Line
	5850 4650 5850 4700
Wire Wire Line
	5850 5600 5850 6400
Wire Wire Line
	7300 4750 7300 4700
Wire Wire Line
	7300 4700 7200 4700
Connection ~ 5850 4700
Wire Wire Line
	5850 4700 5850 4950
Wire Wire Line
	7200 4700 7200 4750
Connection ~ 7200 4700
Wire Wire Line
	7200 4700 5850 4700
Wire Wire Line
	7200 6400 6350 6400
Connection ~ 5850 6400
Wire Wire Line
	5850 6400 5850 6500
Wire Wire Line
	6350 6200 6350 6400
Connection ~ 6350 6400
Wire Wire Line
	6350 6400 5850 6400
Wire Wire Line
	6350 5750 6350 5800
Wire Wire Line
	6350 5450 6350 5150
Wire Wire Line
	6350 5150 5850 5150
Connection ~ 5850 5150
Wire Wire Line
	5850 5150 5850 5300
Wire Wire Line
	6250 4950 5850 4950
Connection ~ 5850 4950
Wire Wire Line
	5850 4950 5850 5150
Wire Wire Line
	6350 5800 6600 5800
Wire Wire Line
	6600 5800 6600 6050
Wire Wire Line
	6600 6050 6800 6050
Connection ~ 6350 5800
Wire Wire Line
	6350 5800 6350 5900
Text Notes 3500 8000 0    50   ~ 0
Current Limit = 10 mA\nSee documentation/calculation.ods | Indicators
$Comp
L Device:R R3
U 1 1 603D7C6D
P 4050 7350
F 0 "R3" H 3950 7300 50  0000 C CNN
F 1 "330" H 3875 7400 50  0000 C CNN
F 2 "Resistor_SMD:R_0603_1608Metric_Pad0.98x0.95mm_HandSolder" V 3980 7350 50  0001 C CNN
F 3 "" H 4050 7350 50  0001 C CNN
F 4 "RMCF0603FT330R" H 4050 7350 50  0001 C CNN "Part Number"
F 5 "0.1" H 4050 7350 50  0001 C CNN "Unit Cost ($)"
F 6 "0.1 W" H 4050 7350 50  0001 C CNN "Power Rating"
F 7 "1 %" H 4050 7350 50  0001 C CNN "Tolerance"
	1    4050 7350
	-1   0    0    1   
$EndComp
$Comp
L Device:R R4
U 1 1 603D7E23
P 4550 7350
F 0 "R4" H 4450 7300 50  0000 C CNN
F 1 "330" H 4375 7400 50  0000 C CNN
F 2 "Resistor_SMD:R_0603_1608Metric_Pad0.98x0.95mm_HandSolder" V 4480 7350 50  0001 C CNN
F 3 "" H 4550 7350 50  0001 C CNN
F 4 "RMCF0603FT330R" H 4550 7350 50  0001 C CNN "Part Number"
F 5 "0.1" H 4550 7350 50  0001 C CNN "Unit Cost ($)"
F 6 "0.1 W" H 4550 7350 50  0001 C CNN "Power Rating"
F 7 "1 %" H 4550 7350 50  0001 C CNN "Tolerance"
	1    4550 7350
	-1   0    0    1   
$EndComp
$Comp
L Device:R R5
U 1 1 603D8129
P 5050 7350
F 0 "R5" H 4950 7300 50  0000 C CNN
F 1 "330" H 4875 7400 50  0000 C CNN
F 2 "Resistor_SMD:R_0603_1608Metric_Pad0.98x0.95mm_HandSolder" V 4980 7350 50  0001 C CNN
F 3 "" H 5050 7350 50  0001 C CNN
F 4 "RMCF0603FT330R" H 5050 7350 50  0001 C CNN "Part Number"
F 5 "0.1" H 5050 7350 50  0001 C CNN "Unit Cost ($)"
F 6 "0.1 W" H 5050 7350 50  0001 C CNN "Power Rating"
F 7 "1 %" H 5050 7350 50  0001 C CNN "Tolerance"
	1    5050 7350
	-1   0    0    1   
$EndComp
$Comp
L Device:LED D3
U 1 1 60221BA0
P 4550 6900
F 0 "D3" V 4589 6782 50  0000 R CNN
F 1 "Orange" V 4498 6782 50  0000 R CNN
F 2 "LED_SMD:LED_0603_1608Metric_Pad1.05x0.95mm_HandSolder" H 4550 6900 50  0001 C CNN
F 3 "" H 4550 6900 50  0001 C CNN
F 4 "https://www.digikey.ca/en/products/detail/osram-opto-semiconductors-inc/LO-L29K-H2K1-24-Z/1938771" H 4550 6900 50  0001 C CNN "Vendor Link"
F 5 "LO L29K-H2K1-24-Z" H 4550 6900 50  0001 C CNN "Part Number"
F 6 "0.48" H 4550 6900 50  0001 C CNN "Unit Cost ($)"
	1    4550 6900
	0    -1   -1   0   
$EndComp
$Comp
L Device:LED D4
U 1 1 60221D8A
P 5050 6900
F 0 "D4" V 5089 6782 50  0000 R CNN
F 1 "Red" V 4998 6782 50  0000 R CNN
F 2 "LED_SMD:LED_0603_1608Metric_Pad1.05x0.95mm_HandSolder" H 5050 6900 50  0001 C CNN
F 3 "" H 5050 6900 50  0001 C CNN
F 4 "https://www.digikey.ca/en/products/detail/osram-opto-semiconductors-inc/LS-L29K-H1J2-1-Z/810339" H 5050 6900 50  0001 C CNN "Vendor Link"
F 5 "LS L29K-H1J2-1-Z" H 5050 6900 50  0001 C CNN "Part Number"
F 6 "0.46" H 5050 6900 50  0001 C CNN "Unit Cost ($)"
	1    5050 6900
	0    -1   -1   0   
$EndComp
NoConn ~ 6800 5750
Wire Wire Line
	9250 5100 9250 5150
$Comp
L Connector:TestPoint TP1
U 1 1 6024F4B8
P 8400 3150
F 0 "TP1" H 8450 3350 50  0000 L CNN
F 1 "V3.3" H 8450 3200 50  0000 L CNN
F 2 "TestPoint:TestPoint_THTPad_D1.0mm_Drill0.5mm" H 8600 3150 50  0001 C CNN
F 3 "" H 8600 3150 50  0001 C CNN
	1    8400 3150
	1    0    0    -1  
$EndComp
Wire Wire Line
	8150 3150 8400 3150
Connection ~ 8150 3150
$Comp
L Connector:TestPoint TP2
U 1 1 60258041
P 8550 4950
F 0 "TP2" H 8600 5150 50  0000 L CNN
F 1 "BATT_DIV" H 8200 5150 50  0000 L CNN
F 2 "TestPoint:TestPoint_THTPad_D1.0mm_Drill0.5mm" H 8750 4950 50  0001 C CNN
F 3 "" H 8750 4950 50  0001 C CNN
	1    8550 4950
	1    0    0    -1  
$EndComp
Connection ~ 8550 4950
Wire Wire Line
	8550 4950 8850 4950
Wire Wire Line
	4050 3200 4800 3200
$Comp
L Connector:TestPoint TP6
U 1 1 602991C9
P 5300 2050
F 0 "TP6" H 5250 2260 50  0000 L CNN
F 1 "GND" H 5220 2330 50  0000 L CNN
F 2 "TestPoint:TestPoint_THTPad_D1.0mm_Drill0.5mm" H 5500 2050 50  0001 C CNN
F 3 "" H 5500 2050 50  0001 C CNN
	1    5300 2050
	-1   0    0    1   
$EndComp
$Comp
L Connector:TestPoint TP7
U 1 1 602B9DBE
P 2400 3200
F 0 "TP7" H 2350 3500 50  0000 L CNN
F 1 "VBUS" H 2350 3400 50  0000 L CNN
F 2 "TestPoint:TestPoint_THTPad_D1.0mm_Drill0.5mm" H 2600 3200 50  0001 C CNN
F 3 "" H 2600 3200 50  0001 C CNN
	1    2400 3200
	1    0    0    -1  
$EndComp
$Comp
L Connector:TestPoint TP8
U 1 1 602BA9A6
P 5300 900
F 0 "TP8" H 5250 1200 50  0000 L CNN
F 1 "VBATT" H 5250 1100 50  0000 L CNN
F 2 "TestPoint:TestPoint_THTPad_D1.0mm_Drill0.5mm" H 5500 900 50  0001 C CNN
F 3 "" H 5500 900 50  0001 C CNN
	1    5300 900 
	1    0    0    -1  
$EndComp
$Comp
L Connector:TestPoint TP9
U 1 1 602BB42F
P 6700 5600
F 0 "TP9" H 6650 5900 50  0000 L CNN
F 1 "TP" H 6650 5800 50  0000 L CNN
F 2 "TestPoint:TestPoint_THTPad_D1.0mm_Drill0.5mm" H 6900 5600 50  0001 C CNN
F 3 "" H 6900 5600 50  0001 C CNN
	1    6700 5600
	1    0    0    -1  
$EndComp
Wire Wire Line
	6700 5950 6800 5950
Wire Wire Line
	6700 5600 6700 5950
NoConn ~ 6800 5650
Text Label 9600 1250 0    50   ~ 0
OUT
Text Notes 700  750  0    100  ~ 0
Battery
Text Notes 700  2800 0    100  ~ 0
Battery Charge
Text Notes 7400 750  0    100  ~ 0
Power Control
Text Notes 3000 4600 0    100  ~ 0
Button
Text Notes 6350 4400 0    100  ~ 0
Microcontroller
Text Notes 9550 750  0    100  ~ 0
Output
Text Notes 700  6250 0    100  ~ 0
Programming
Text Notes 6300 2800 0    100  ~ 0
Microcontoller Power
Wire Wire Line
	6500 1250 7400 1250
Text Notes 3000 6200 0    100  ~ 0
Indicators
Text Notes 7400 2300 0    50   ~ 0
Thermal Maximum Current = 3.58 A\nSee documentation/calculation.ods | Power Control
$Comp
L Battery_Management:AP9101CK U5
U 1 1 602E999F
P 3150 1450
F 0 "U5" H 2900 1900 50  0000 C CNN
F 1 "AP9101CK" H 3150 1840 50  0001 C CNN
F 2 "Package_TO_SOT_SMD:SOT-23-5" H 3100 1450 50  0001 C CNN
F 3 "https://www.diodes.com/assets/Datasheets/AP9101C.pdf" H 3150 1500 50  0001 C CNN
F 4 "AP9101CK6-CQTRG1" H 3250 1800 50  0000 C CNN "Part Number"
F 5 "https://www.digikey.ca/en/products/detail/diodes-incorporated/ap9101ck6-cqtrg1/7352561" H 3150 1450 50  0001 C CNN "Vendor Link"
F 6 "0.46" H 3150 1450 50  0001 C CNN "Unit Cost ($)"
	1    3150 1450
	1    0    0    -1  
$EndComp
$Comp
L Device:Battery_Cell BT1
U 1 1 602F8EF0
P 700 1650
F 0 "BT1" H 818 1791 50  0000 L CNN
F 1 "Lithium Ion 18650 Holder" H 818 1700 50  0000 L CNN
F 2 "Battery:BatteryHolder_Keystone_1042_1x18650" V 700 1710 50  0001 C CNN
F 3 "https://www.keyelco.com/userAssets/file/M65p27.pdf" V 700 1710 50  0001 C CNN
F 4 "https://www.digikey.ca/en/products/detail/keystone-electronics/1042/2745668" H 700 1650 50  0001 C CNN "Vendor Link"
F 5 "1042" H 818 1609 50  0000 L CNN "Part Number"
F 6 "3.93" H 700 1650 50  0001 C CNN "Unit Cost ($)"
	1    700  1650
	1    0    0    -1  
$EndComp
$Comp
L schematic:DMG6968UDM Q1
U 1 1 60302C64
P 4100 2050
F 0 "Q1" V 4250 2300 50  0000 L CNN
F 1 "DMG6968UDM" V 4250 2000 50  0001 L CNN
F 2 "Package_TO_SOT_SMD:SOT-23-6" H 4200 2325 50  0001 L CIN
F 3 "https://www.diodes.com/assets/Datasheets/ds31758.pdf" H 4000 2250 50  0001 L CNN
F 4 "https://www.digikey.ca/en/products/detail/diodes-incorporated/DMG6968UDM-7/2075441" H 4100 2050 50  0001 C CNN "Vendor Link"
F 5 "DMG6968UDM-7" V 4350 2100 50  0000 C CNN "Part Number"
F 6 "0.48" H 4100 2050 50  0001 C CNN "Unit Cost ($)"
	1    4100 2050
	0    -1   1    0   
$EndComp
$Comp
L Device:C C8
U 1 1 60314D8D
P 2100 1600
F 0 "C8" H 1900 1650 50  0000 L CNN
F 1 "1u" H 1900 1550 50  0000 L CNN
F 2 "Capacitor_SMD:C_0603_1608Metric_Pad1.08x0.95mm_HandSolder" H 2138 1450 50  0001 C CNN
F 3 "" H 2100 1600 50  0001 C CNN
F 4 "CL10B105KQ8NNNC" H 2100 1600 50  0001 C CNN "Part Number"
F 5 "0.1" H 2100 1600 50  0001 C CNN "Unit Cost ($)"
F 6 "0 - 6.3 V" H 2100 1600 50  0001 C CNN "Input Voltage"
	1    2100 1600
	1    0    0    -1  
$EndComp
$Comp
L Device:R R17
U 1 1 6031591B
P 1800 1150
F 0 "R17" V 1700 1250 50  0000 C CNN
F 1 "330" V 1700 1050 50  0000 C CNN
F 2 "Resistor_SMD:R_0603_1608Metric_Pad0.98x0.95mm_HandSolder" V 1730 1150 50  0001 C CNN
F 3 "" H 1800 1150 50  0001 C CNN
F 4 "RMCF0603FT330R" H 1800 1150 50  0001 C CNN "Part Number"
F 5 "0.1" H 1800 1150 50  0001 C CNN "Unit Cost ($)"
F 6 "0.1 W" H 1800 1150 50  0001 C CNN "Power Rating"
F 7 "1 %" H 1800 1150 50  0001 C CNN "Tolerance"
	1    1800 1150
	0    -1   -1   0   
$EndComp
Wire Wire Line
	3700 2050 3150 2050
Wire Wire Line
	3150 2050 3150 1750
Wire Wire Line
	3550 1550 3850 1550
Wire Wire Line
	3850 1550 3850 1750
Wire Wire Line
	3550 1350 4350 1350
Wire Wire Line
	4350 1350 4350 1750
$Comp
L Device:R R18
U 1 1 6033BF46
P 2550 1600
F 0 "R18" H 2700 1550 50  0000 C CNN
F 1 "2.7k" H 2700 1650 50  0000 C CNN
F 2 "Resistor_SMD:R_0603_1608Metric_Pad0.98x0.95mm_HandSolder" V 2480 1600 50  0001 C CNN
F 3 "" H 2550 1600 50  0001 C CNN
F 4 "RMCF0603FT2K70" H 2550 1600 50  0001 C CNN "Part Number"
F 5 "0.1 W" H 2550 1600 50  0001 C CNN "Power Rating"
F 6 "1 %" H 2550 1600 50  0001 C CNN "Tolerance"
F 7 "0.1" H 2550 1600 50  0001 C CNN "Unit Cost ($)"
	1    2550 1600
	-1   0    0    1   
$EndComp
$Comp
L power:GND #PWR0101
U 1 1 6033FF95
P 2550 1800
F 0 "#PWR0101" H 2550 1550 50  0001 C CNN
F 1 "GND" H 2555 1627 50  0000 C CNN
F 2 "" H 2550 1800 50  0001 C CNN
F 3 "" H 2550 1800 50  0001 C CNN
	1    2550 1800
	1    0    0    -1  
$EndComp
$Comp
L power:GND #PWR0103
U 1 1 603403B5
P 4800 2100
F 0 "#PWR0103" H 4800 1850 50  0001 C CNN
F 1 "GND" H 4805 1927 50  0000 C CNN
F 2 "" H 4800 2100 50  0001 C CNN
F 3 "" H 4800 2100 50  0001 C CNN
	1    4800 2100
	1    0    0    -1  
$EndComp
Wire Wire Line
	2550 1450 2750 1450
Wire Wire Line
	2550 1750 2550 1800
Wire Wire Line
	4500 2050 4800 2050
Wire Wire Line
	2100 1750 2100 2050
Connection ~ 3150 2050
Wire Wire Line
	2100 1450 2100 1150
Wire Wire Line
	1950 1150 2100 1150
Connection ~ 2100 1150
Wire Wire Line
	700  1450 700  1150
Wire Wire Line
	700  1150 1650 1150
Wire Wire Line
	700  1750 700  2050
Connection ~ 2100 2050
$Comp
L power:+BATT #PWR0122
U 1 1 603993C0
P 4750 850
F 0 "#PWR0122" H 4750 700 50  0001 C CNN
F 1 "+BATT" H 4765 1023 50  0000 C CNN
F 2 "" H 4750 850 50  0001 C CNN
F 3 "" H 4750 850 50  0001 C CNN
	1    4750 850 
	1    0    0    -1  
$EndComp
Text Label 1050 2050 0    50   ~ 0
BATT_NEG
Text Label 1050 900  0    50   ~ 0
BATT_POS
Wire Wire Line
	700  1150 700  900 
Connection ~ 700  1150
Text Notes 2500 750  0    100  ~ 0
Battery Protection
$Comp
L power:+BATT #PWR0123
U 1 1 604703AE
P 6500 850
F 0 "#PWR0123" H 6500 700 50  0001 C CNN
F 1 "+BATT" H 6515 1023 50  0000 C CNN
F 2 "" H 6500 850 50  0001 C CNN
F 3 "" H 6500 850 50  0001 C CNN
	1    6500 850 
	1    0    0    -1  
$EndComp
Connection ~ 6500 2050
Wire Wire Line
	6500 1250 6500 850 
Connection ~ 6500 1250
Connection ~ 3000 3200
Wire Wire Line
	2150 3200 2400 3200
Wire Wire Line
	1700 3200 1900 3200
Wire Wire Line
	5850 3800 6050 3800
Wire Wire Line
	7850 3500 7850 3800
Wire Wire Line
	6050 3500 6050 3800
Connection ~ 6050 3800
Text Label 2650 3200 0    50   ~ 0
VBUS
Connection ~ 2400 3200
Wire Wire Line
	2400 3200 3000 3200
$Comp
L power:PWR_FLAG #FLG0101
U 1 1 60536AC2
P 1900 3200
F 0 "#FLG0101" H 1900 3275 50  0001 C CNN
F 1 "PWR_FLAG" H 1900 3373 50  0000 C CNN
F 2 "" H 1900 3200 50  0001 C CNN
F 3 "~" H 1900 3200 50  0001 C CNN
	1    1900 3200
	1    0    0    -1  
$EndComp
Connection ~ 1900 3200
Wire Wire Line
	1900 3200 2150 3200
Wire Wire Line
	4800 2050 5050 2050
Connection ~ 4800 2050
Wire Wire Line
	4800 2100 4800 2050
Wire Wire Line
	700  900  4750 900 
Wire Wire Line
	4750 850  4750 900 
Connection ~ 4750 900 
Wire Wire Line
	4750 900  5300 900 
Wire Wire Line
	6050 3800 7000 3800
Wire Wire Line
	7000 3550 7000 3800
Connection ~ 7000 3800
Wire Wire Line
	7000 3800 7850 3800
$Comp
L power:PWR_FLAG #FLG0102
U 1 1 60578CFB
P 1800 2050
F 0 "#FLG0102" H 1800 2125 50  0001 C CNN
F 1 "PWR_FLAG" H 1800 2223 50  0000 C CNN
F 2 "" H 1800 2050 50  0001 C CNN
F 3 "~" H 1800 2050 50  0001 C CNN
	1    1800 2050
	-1   0    0    1   
$EndComp
$Comp
L power:PWR_FLAG #FLG0103
U 1 1 605797BC
P 5050 2050
F 0 "#FLG0103" H 5050 2125 50  0001 C CNN
F 1 "PWR_FLAG" H 5050 2223 50  0000 C CNN
F 2 "" H 5050 2050 50  0001 C CNN
F 3 "~" H 5050 2050 50  0001 C CNN
	1    5050 2050
	1    0    0    -1  
$EndComp
Connection ~ 5050 2050
Wire Wire Line
	5050 2050 5300 2050
$Comp
L power:PWR_FLAG #FLG0104
U 1 1 60579E4B
P 2450 1150
F 0 "#FLG0104" H 2450 1225 50  0001 C CNN
F 1 "PWR_FLAG" H 2450 1300 50  0000 C CNN
F 2 "" H 2450 1150 50  0001 C CNN
F 3 "~" H 2450 1150 50  0001 C CNN
	1    2450 1150
	1    0    0    -1  
$EndComp
Wire Wire Line
	3600 5250 4550 5250
Connection ~ 3600 5250
Text Notes 2250 2550 0    50   ~ 0
Maximum Discharge Current = 3.1 A\nMaximum Charge Current = 2.1 A\nReverse Polarity Power = 5.8 mW\nThermal Maximum Current = 4.2 A\nSee documentation/calculation.ods | Protection
Connection ~ 1800 2050
Wire Wire Line
	1800 2050 2100 2050
Wire Wire Line
	700  2050 1800 2050
Wire Wire Line
	2100 2050 3150 2050
Connection ~ 2450 1150
Wire Wire Line
	2450 1150 3150 1150
Wire Wire Line
	2100 1150 2450 1150
$Comp
L Device:R R19
U 1 1 603B3C53
P 1750 4500
F 0 "R19" H 1625 4450 50  0000 C CNN
F 1 "5.1k" H 1625 4550 50  0000 C CNN
F 2 "Resistor_SMD:R_0603_1608Metric_Pad0.98x0.95mm_HandSolder" V 1680 4500 50  0001 C CNN
F 3 "" H 1750 4500 50  0001 C CNN
F 4 "RMCF0603FT5K10" H 1750 4500 50  0001 C CNN "Part Number"
F 5 "0.15" H 1750 4500 50  0001 C CNN "Unit Cost ($)"
F 6 "0.1 W" H 1750 4500 50  0001 C CNN "Power Rating"
F 7 "1 %" H 1750 4500 50  0001 C CNN "Tolerance"
	1    1750 4500
	-1   0    0    1   
$EndComp
$Comp
L Device:R R20
U 1 1 603B4323
P 2150 4500
F 0 "R20" H 2025 4450 50  0000 C CNN
F 1 "5.1k" H 2025 4550 50  0000 C CNN
F 2 "Resistor_SMD:R_0603_1608Metric_Pad0.98x0.95mm_HandSolder" V 2080 4500 50  0001 C CNN
F 3 "" H 2150 4500 50  0001 C CNN
F 4 "RMCF0603FT5K10" H 2150 4500 50  0001 C CNN "Part Number"
F 5 "0.15" H 2150 4500 50  0001 C CNN "Unit Cost ($)"
F 6 "0.1 W" H 2150 4500 50  0001 C CNN "Power Rating"
F 7 "1 %" H 2150 4500 50  0001 C CNN "Tolerance"
	1    2150 4500
	-1   0    0    1   
$EndComp
$Comp
L power:GND #PWR01
U 1 1 603B62C9
P 1950 4700
F 0 "#PWR01" H 1950 4450 50  0001 C CNN
F 1 "GND" H 1955 4527 50  0000 C CNN
F 2 "" H 1950 4700 50  0001 C CNN
F 3 "" H 1950 4700 50  0001 C CNN
	1    1950 4700
	1    0    0    -1  
$EndComp
Wire Wire Line
	1750 4650 1750 4700
Wire Wire Line
	1750 4700 1950 4700
Wire Wire Line
	2150 4650 2150 4700
Wire Wire Line
	2150 4700 1950 4700
Connection ~ 1950 4700
Wire Wire Line
	1750 4350 1750 3500
Wire Wire Line
	1750 3500 1700 3500
Wire Wire Line
	1700 3400 1850 3400
Wire Wire Line
	1850 3400 1850 4250
Wire Wire Line
	1850 4250 2150 4250
Wire Wire Line
	2150 4250 2150 4350
$EndSCHEMATC
