(module S2B-PH-K-S (layer F.Cu) (tedit 602B6155)
  (descr "Connector Header Through Hole, Right Angle 2 position 0.079\" (2.00mm)")
  (fp_text reference REF** (at 3 0.75) (layer F.SilkS)
    (effects (font (size 1 1) (thickness 0.15)))
  )
  (fp_text value S2B-PH-K-S (at -1.75 5) (layer F.Fab)
    (effects (font (size 1 1) (thickness 0.15)))
  )
  (fp_line (start -6.5 4) (end -6.5 -2) (layer F.Fab) (width 0.12))
  (fp_line (start 1.5 4) (end -6.5 4) (layer F.Fab) (width 0.12))
  (fp_line (start 1.5 3) (end 1.5 4) (layer F.Fab) (width 0.12))
  (fp_line (start 0 3) (end 1.5 3) (layer F.Fab) (width 0.12))
  (fp_line (start 0 -1) (end 0 3) (layer F.Fab) (width 0.12))
  (fp_line (start 1.5 -1) (end 0 -1) (layer F.Fab) (width 0.12))
  (fp_line (start 1.5 -2) (end 1.5 -1) (layer F.Fab) (width 0.12))
  (fp_line (start -6.5 -2) (end 1.5 -2) (layer F.Fab) (width 0.12))
  (fp_line (start -6.5 -2) (end -6.5 4) (layer F.SilkS) (width 0.12))
  (fp_line (start -6.5 4) (end 1.5 4) (layer F.SilkS) (width 0.12))
  (fp_line (start 1.5 3) (end 0 3) (layer F.SilkS) (width 0.12))
  (fp_line (start -6.5 -2) (end 1.5 -2) (layer F.SilkS) (width 0.12))
  (fp_line (start 1.5 -1) (end 0 -1) (layer F.SilkS) (width 0.12))
  (fp_line (start 1.5 -2) (end 1.5 -1) (layer F.SilkS) (width 0.12))
  (fp_line (start 1.5 3) (end 1.5 4) (layer F.SilkS) (width 0.12))
  (fp_line (start 1.5 -2.25) (end -6.5 -2.25) (layer F.CrtYd) (width 0.12))
  (fp_line (start -6.5 -2.25) (end -9.5 -2.25) (layer F.CrtYd) (width 0.12))
  (fp_line (start -9.5 -2.25) (end -9.5 4.25) (layer F.CrtYd) (width 0.12))
  (fp_line (start -9.5 4.25) (end 1.75 4.25) (layer F.CrtYd) (width 0.12))
  (fp_line (start 1.75 4.25) (end 1.75 -2.25) (layer F.CrtYd) (width 0.12))
  (fp_line (start 1.75 -2.25) (end 1.5 -2.25) (layer F.CrtYd) (width 0.12))
  (fp_line (start 0 -1) (end 1.5 -1) (layer Dwgs.User) (width 0.12))
  (fp_line (start 1.5 -1) (end 1.5 -2) (layer Dwgs.User) (width 0.12))
  (fp_line (start 1.5 -2) (end -6.5 -2) (layer Dwgs.User) (width 0.12))
  (fp_line (start -6.5 -2) (end -6.5 4) (layer Dwgs.User) (width 0.12))
  (fp_line (start -6.5 4) (end 1.5 4) (layer Dwgs.User) (width 0.12))
  (fp_line (start 1.5 4) (end 1.5 3) (layer Dwgs.User) (width 0.12))
  (fp_line (start 1.5 3) (end 0 3) (layer Dwgs.User) (width 0.12))
  (fp_line (start 0 3) (end 0 -1) (layer Dwgs.User) (width 0.12))
  (fp_text user %R (at -3.25 1 180) (layer F.Fab)
    (effects (font (size 0.9 0.9) (thickness 0.135)))
  )
  (pad 1 thru_hole rect (at 0 0) (size 1.35 1.35) (drill 0.8) (layers *.Cu *.Mask))
  (pad 2 thru_hole oval (at 0 2) (size 1.35 1.35) (drill 0.8) (layers *.Cu *.Mask))
  (model "${KIPRJMOD}/library/proprietary/S2B-PH-K-S(LF)(SN)--3DModel-STEP-1.STEP"
    (offset (xyz 1.5 -1 0))
    (scale (xyz 1 1 1))
    (rotate (xyz -90 0 90))
  )
)
